app.post('/uploadFile',upload, (req,res) => {

    const isFinalChunk = req.body.finish === 'true';
    if (req.body.file) {
        chunks.push(req.body.file);
    }
    console.log(req.body.file);
    if (isFinalChunk) {
      const fullFile = chunks.join('');
      if (!req.body.file) {
          return res.status(400).send('Aucun fichier trouvé');
        }
        //const $ = cheerio.load(req.body.file);
        const $ = cheerio.load(fullFile);
        const hrefValues = [];
        
        $('a').each((index, element) => {
          const href = $(element).attr('href');
          if (href) {
              hrefValues.push($(element).attr('href').split("=")[1]);
          }
        });
        console.log(hrefValues);
        console.log("fin");
      }
});



  uploadFile(file: string): Observable<any> {
    console.log(file);
    const formData = new FormData();
    formData.append('file', file);
    const body =formData;

    let result = this.http.post<any>(this.apiUrl+"/uploadFile", body);
    return result;
  }

  addArchive(){

  }

  /*addArchive(file: string,finish:boolean): Observable<any> {
    console.log("go");
    let result = this.http.post<any>(this.apiUrl+"/addArchive", {data: file,finish});
    return result;
  }

  async uploadFile(file:string){
    const chunkSize = 50000; // Taille de chaque morceau
    let offset = 0;
    let result;
    while (offset < file.length) {
      const isLastChunk = (offset + chunkSize >= file.length); // Vérifie si c'est le dernier morceau
      console.log("envoi" + isLastChunk);
      const chunk = file.slice(offset, isLastChunk ? file.length : offset + chunkSize);
      //this.addArchive(chunk,isLastChunk);
      await this.http.post<any>(this.apiUrl+"/addArchive", {data: chunk,isLastChunk});
      offset += chunkSize;
    }    
  }*/


}
